init:
write to 0x68 ack data: 0x2F 0x00
write to 0x68 ack data: 0x01 0x00 0x00 0x01
write to 0x68 ack data: 0x1D 0x00
write to 0x68 ack data: 0x04 0xFF 0xFF 0xEF 0x00
write to 0x68 ack data: 0x00 0x20
write to 0x68 ack data: 0x0A 0x00 0x00 0x00
write to 0x68 ack data: 0x10 0x00 0x00 0x00
write to 0x68 ack data: 0x16 0x00 0x00 0x00
write to 0x68 ack data: 0x1C 0x00
write to 0x68 ack data: 0x01 0x00 0x00 0x0C
write to 0x68 ack data: 0x1D 0x00
write to 0x68 ack data: 0x04 0xFF 0xFF 0xEF 0x00
write to 0x68 ack data: 0x1D 0x01
write to 0x68 ack data: 0x04 0xFF 0xFF 0xEF 0x00

change to light blue:
write to 0x68 ack data: 0x1D 0x07
write to 0x68 ack data: 0x04 0xFF 0xFF 0xEF 0x00
write to 0x68 ack data: 0x1D 0x07
write to 0x68 ack data: 0x04 0x3C 0xFF 0x82 0x00

change to red:
write to 0x68 ack data: 0x0A 0x00 0x00 0x00
write to 0x68 ack data: 0x10 0x00 0x00 0x00
write to 0x68 ack data: 0x16 0x00 0x00 0x00
write to 0x68 ack data: 0x1C 0x00
write to 0x68 ack data: 0x01 0x00 0x00 0x0C
write to 0x68 ack data: 0x1D 0x00
write to 0x68 ack data: 0x04 0xFF 0xFF 0xEF 0x00
write to 0x68 ack data: 0x1D 0x01
write to 0x68 ack data: 0x04 0xFF 0xFF 0xEF 0x00